{
	"compiler": {
		"version": "0.8.6+commit.11564f7e"
	},
	"language": "Solidity",
	"output": {
		"abi": [
			{
				"inputs": [],
				"stateMutability": "nonpayable",
				"type": "constructor"
			},
			{
				"inputs": [],
				"name": "creator",
				"outputs": [
					{
						"internalType": "address",
						"name": "",
						"type": "address"
					}
				],
				"stateMutability": "view",
				"type": "function"
			},
			{
				"inputs": [],
				"name": "myfunc",
				"outputs": [],
				"stateMutability": "nonpayable",
				"type": "function"
			},
			{
				"inputs": [],
				"name": "var1",
				"outputs": [
					{
						"internalType": "uint256",
						"name": "",
						"type": "uint256"
					}
				],
				"stateMutability": "view",
				"type": "function"
			},
			{
				"inputs": [
					{
						"internalType": "uint256",
						"name": "",
						"type": "uint256"
					}
				],
				"name": "wows",
				"outputs": [
					{
						"internalType": "address",
						"name": "",
						"type": "address"
					}
				],
				"stateMutability": "view",
				"type": "function"
			}
		],
		"devdoc": {
			"kind": "dev",
			"methods": {},
			"version": 1
		},
		"userdoc": {
			"kind": "user",
			"methods": {},
			"version": 1
		}
	},
	"settings": {
		"compilationTarget": {
			"test.sol": "Child"
		},
		"evmVersion": "berlin",
		"libraries": {},
		"metadata": {
			"bytecodeHash": "ipfs"
		},
		"optimizer": {
			"enabled": false,
			"runs": 200
		},
		"remappings": []
	},
	"sources": {
		"test.sol": {
			"keccak256": "0xe4835ee5d3d41f1a8cf180b919b3ae26a822bdd6d64d61171ba8c4a1a9bac235",
			"license": "GPL-3.0",
			"urls": [
				"bzz-raw://08aaca92270feebdffeae2141912268823756952b5935edc158ac0213627cb9e",
				"dweb:/ipfs/QmbUusQNYFJTGEw29g1NGxFBYvds5uN1UKVC8MzKdaGFVF"
			]
		}
	},
	"version": 1
}