{
	"compiler": {
		"version": "0.8.4+commit.c7e474f2"
	},
	"language": "Solidity",
	"output": {
		"abi": [],
		"devdoc": {
			"kind": "dev",
			"methods": {},
			"version": 1
		},
		"userdoc": {
			"kind": "user",
			"methods": {},
			"version": 1
		}
	},
	"settings": {
		"compilationTarget": {
			"fixture-factory.sol": "Context"
		},
		"evmVersion": "istanbul",
		"libraries": {},
		"metadata": {
			"bytecodeHash": "ipfs"
		},
		"optimizer": {
			"enabled": false,
			"runs": 200
		},
		"remappings": []
	},
	"sources": {
		"fixture-factory.sol": {
			"keccak256": "0x79ee9c12aad635db950f18a771c40cba1581e5908f2225a3addb6161952fb238",
			"license": "GPL-3.0",
			"urls": [
				"bzz-raw://1a696cadc2c039ba228889340863cc5549073f5974f2dec1c3e6a71747d027eb",
				"dweb:/ipfs/QmVFe4nxhGwB4M9VRRUkvS66bsGjpPhnnNob7uGeYLGm9t"
			]
		}
	},
	"version": 1
}