{
	"compiler": {
		"version": "0.8.4+commit.c7e474f2"
	},
	"language": "Solidity",
	"output": {
		"abi": [
			{
				"inputs": [],
				"name": "dive",
				"outputs": [
					{
						"internalType": "uint256",
						"name": "",
						"type": "uint256"
					}
				],
				"stateMutability": "pure",
				"type": "function"
			},
			{
				"inputs": [
					{
						"internalType": "uint256",
						"name": "num1",
						"type": "uint256"
					},
					{
						"internalType": "uint256",
						"name": "num2",
						"type": "uint256"
					}
				],
				"name": "divide",
				"outputs": [
					{
						"internalType": "uint256",
						"name": "",
						"type": "uint256"
					}
				],
				"stateMutability": "pure",
				"type": "function"
			},
			{
				"inputs": [
					{
						"internalType": "uint256",
						"name": "numerator",
						"type": "uint256"
					},
					{
						"internalType": "uint256",
						"name": "denominator",
						"type": "uint256"
					}
				],
				"name": "getDivided",
				"outputs": [
					{
						"internalType": "uint256",
						"name": "quotient",
						"type": "uint256"
					},
					{
						"internalType": "uint256",
						"name": "remainder",
						"type": "uint256"
					}
				],
				"stateMutability": "pure",
				"type": "function"
			},
			{
				"inputs": [],
				"name": "receie",
				"outputs": [],
				"stateMutability": "payable",
				"type": "function"
			}
		],
		"devdoc": {
			"kind": "dev",
			"methods": {},
			"version": 1
		},
		"userdoc": {
			"kind": "user",
			"methods": {},
			"version": 1
		}
	},
	"settings": {
		"compilationTarget": {
			"test.sol": "MyFactory"
		},
		"evmVersion": "istanbul",
		"libraries": {},
		"metadata": {
			"bytecodeHash": "ipfs"
		},
		"optimizer": {
			"enabled": false,
			"runs": 200
		},
		"remappings": []
	},
	"sources": {
		"test.sol": {
			"keccak256": "0x17965f9518d2683700fa06dc6a92019706d37144254af40a43bef3e513e2e960",
			"license": "GPL-3.0",
			"urls": [
				"bzz-raw://8dfe222f821a558d0b761a32ed4414276d789bbc4c2929ca201a0703c361b2b8",
				"dweb:/ipfs/QmWM8qTMTGJDPn6ZhHpezgR7zCWqSgU7kyKHwxjvpaYaYd"
			]
		}
	},
	"version": 1
}